[ req ]
default_bits       = 4096
default_md         = sha512
default_keyfile    = key.pem
prompt             = no
encrypt_key        = no


# base request
distinguished_name = req_distinguished_name

# distinguished_name
[ req_distinguished_name ]
countryName            = "DE"                     # C=
stateOrProvinceName    = "Berlin"                 # ST=
localityName           = "Berlin"                 # L=
postalCode             = ""                       # L/postalcode=
streetAddress          = ""                       # L/street=
organizationName       = "Schlothauer & Wauer"    # O=
organizationalUnitName = "IT Department"          # OU=
commonName             = "etcd-tests"             # CN=
emailAddress           = "webmaster@example.com"  # CN/emailAddress=
